{
    "results":[
        {
            "popularity":171.766,
            "vote_count":221,
            "video":false,
            "poster_path":"\/io4qQplxQPBb6FbG8H0R9Mlleh9.jpg",
            "id":453405,
            "adult":false,
            "backdrop_path":"\/c3F4P2oauA7IQmy4hM0OmRt2W7d.jpg",
            "original_language":"en",
            "original_title":"Gemini Man",
            "genre_ids":[
                28,
                53
            ],
            "title":"Projeto Gemini",
            "vote_average":5.9,
            "overview":"Um thriller de ação inovador com Will Smith no papel de Henry Brogan, um assassino de elite, que se torna no alvo de perseguição de um jovem e misterioso agente secreto que parece ser capaz de prever todos os seus movimentos. O filme é realizado pelo vencedor de um Óscar®, Ang Lee, e produzido pelos prestigiados Jerry Bruckheimer, David Ellison, Dana Goldberg e Don Granger. Fazem, também, parte do elenco Mary Elizabeth Winstead, Clive Owen e Benedict Wong.",
            "release_date":"2019-10-10"
        },
        {
            "popularity":160.307,
            "vote_count":1569,
            "video":false,
            "poster_path":"\/hufyXxsAqgWvWZp2lq2wZPsS4sf.jpg",
            "id":474350,
            "adult":false,
            "backdrop_path":"\/8moTOzunF7p40oR5XhlDvJckOSW.jpg",
            "original_language":"en",
            "original_title":"It Chapter Two",
            "genre_ids":[
                27
            ],
            "title":"It: Capítulo Dois",
            "vote_average":7,
            "overview":"27 anos depois dos eventos de \"It - A Coisa\", Mike (Isaiah Mustafa) percebe que o palhaço Pennywise (Bill Skarsgard) está de volta à cidade de Derry. Ele convoca os antigos amigos do Clube dos Otários para honrar a promessa de infância e acabar com o inimigo de uma vez por todas. Mas quando Bill (James McAvoy), Beverly (Jessica Chastain), Ritchie (Bill Hader), Ben (Jay Ryan) e Eddie (James Ransone) retornam às suas origens, eles precisam se confrontar a traumas nunca resolvidos de suas infâncias, e que repercutem até hoje na vida adulta.",
            "release_date":"2019-09-05"
        },
        {
            "popularity":87.364,
            "id":522938,
            "video":false,
            "vote_count":454,
            "vote_average":6,
            "title":"Rambo: Até o Fim",
            "release_date":"2019-09-19",
            "original_language":"en",
            "original_title":"Rambo: Last Blood",
            "genre_ids":[
                28,
                53
            ],
            "backdrop_path":"\/spYx9XQFODuqEVoPpvaJI1ksAVt.jpg",
            "adult":false,
            "overview":"O tempo passou para Rambo (Sylvester Stallone), agora ele vive recluso e trabalha em um rancho que fica na fronteira entre os Estados Unidos e o México. Sua vida antiga marcada por lutas violentas, mas quase sempre vitoriosas, ficou no passado. No entanto, quando a filha de um amigo é sequestrada, Rambo não consegue controlar seu ímpeto por justiça e resolve enfrentar um dos mais perigosos cartéis do México",
            "poster_path":"\/5bWCuGWsvQPdcrW2TpdY99npN7Q.jpg"
        },
        {
            "popularity":72.594,
            "id":481084,
            "video":false,
            "vote_count":27,
            "vote_average":6.6,
            "title":"A Família Addams",
            "release_date":"2019-10-10",
            "original_language":"en",
            "original_title":"The Addams Family",
            "genre_ids":[
                16,
                35,
                10751,
                27,
                14
            ],
            "backdrop_path":"\/nHZpVTiGLj0GXP3D9bFbmvzw73y.jpg",
            "adult":false,
            "overview":"Prepare-se para estalar os dedos! A Família Addams está de volta às telonas na primeira animação de comédia sobre o clã mais excêntrico do pedaço. Engraçada, estranha e completamente icônica, a Família Addams redefine o que significa ser um bom vizinho.",
            "poster_path":"\/uaXNjRkDdjfxfVuKHo25wkA6CiA.jpg"
        },
        {
            "popularity":96.404,
            "id":420809,
            "video":false,
            "vote_count":19,
            "vote_average":7.9,
            "title":"Malévola - Dona do Mal",
            "release_date":"2019-10-17",
            "original_language":"en",
            "original_title":"Maleficent: Mistress of Evil",
            "genre_ids":[
                14,
                12,
                10751
            ],
            "backdrop_path":"\/HmEXofYSc56wBHIqY6tJDroCSw.jpg",
            "adult":false,
            "overview":"Uma aventura que se passa vários anos depois de \"Malévola\" - em que o público aprendeu sobre os eventos que endureceram o coração da vilã mais famosa da Disney e a levou a amaldiçoar a pequena princesa Aurora, \"Malévola II\" continua a explorar a relação complexa entre a fada de chifres e a quase rainha, ao formarem novas alianças e enfrentarem novos adversários em sua luta para proteger os mouros e as criaturas mágicas.",
            "poster_path":"\/yv8PCIQRh70LNhhcIfUySEFZ67R.jpg"
        },
        {
            "popularity":57.277,
            "id":513045,
            "video":false,
            "vote_count":185,
            "vote_average":6.5,
            "title":"Stuber",
            "release_date":"2019-07-11",
            "original_language":"en",
            "original_title":"Stuber",
            "genre_ids":[
                28,
                35,
                53,
                80
            ],
            "backdrop_path":"\/xgfn98c2UzvFWP6MXDzytearmQ3.jpg",
            "adult":false,
            "overview":"Quando Stu (Kumail Nanjiani), um motorista da Uber, é recrutado por um policial (Dave Bautista) para ajudá-lo a investigar o paradeiro de um brutal assassino, algumas regras precisam ser quebradas. Seguindo as poucas pistas que possuem para seguir o traço do criminoso, eles cada vez se complicam mais na perseguição desenfreada.",
            "poster_path":"\/klkFYDZOetegK8floj6IjvbzzQ2.jpg"
        },
        {
            "popularity":64.322,
            "id":338967,
            "video":false,
            "vote_count":23,
            "vote_average":7.2,
            "title":"Zumbilândia: Atire Duas Vezes",
            "release_date":"2019-10-24",
            "original_language":"en",
            "original_title":"Zombieland: Double Tap",
            "genre_ids":[
                27,
                28,
                35
            ],
            "backdrop_path":"\/jCCdt0e8Xe9ttvevD4S3TSMNdH.jpg",
            "adult":false,
            "overview":"Columbus (Jesse Eisenberg), Tallahassee (Woody Harrelson), Wichita (Emma Stone) e Little Rock (Abigail Breslin) irão da Casa Branca para o coração da América, enfrentando novos tipos de zumbis que evoluíram desde que o tempo se passou, bem como alguns novos sobreviventes humanos. Mas, acima de tudo, eles têm que enfrentar as dores crescentes de sua própria família sarcástica e improvisada.",
            "poster_path":"\/2G9GBRjlQiGBPHBxDplviSktxcW.jpg"
        },
        {
            "popularity":50.568,
            "vote_count":287,
            "video":false,
            "poster_path":"\/zBhv8rsLOfpFW2M5b6wW78Uoojs.jpg",
            "id":540901,
            "adult":false,
            "backdrop_path":"\/5GynP6w2OQWSbKnCLHrBIriF4Cw.jpg",
            "original_language":"en",
            "original_title":"Hustlers",
            "genre_ids":[
                35,
                80,
                18
            ],
            "title":"Ousadas e Golpistas",
            "vote_average":6.1,
            "overview":"Inspirado na história verídica de um grupo de strippers que se aliam para se vingarem dos seus clientes ricos de Wall Street. Um filme com Jennifer Lopez, Constance Wu (Crazy Rich Asians), Lili Reinhart (Riverdale) e ainda Lizzo e Cardi B nas suas estreias em cinema.",
            "release_date":"2019-09-12"
        },
        {
            "popularity":49.52,
            "vote_count":153,
            "video":false,
            "poster_path":"\/ebe8hJRCwdflNQbUjRrfmqtUiNi.jpg",
            "id":454640,
            "adult":false,
            "backdrop_path":"\/k7sE3loFwuU2mqf7FbZBeE3rjBa.jpg",
            "original_language":"en",
            "original_title":"The Angry Birds Movie 2",
            "genre_ids":[
                28,
                12,
                16,
                35,
                10751
            ],
            "title":"Angry Birds 2: O Filme",
            "vote_average":6.2,
            "overview":"As novas aventuras dos pássaros mais mal humorados do planeta. Depois de descobrirem os mistérios por trás da chegada dos porcos na ilha em que viviam, Red, Chuck e Bomb se juntam em novas confusões, cada vez mais irritados.",
            "release_date":"2019-10-03"
        },
        {
            "popularity":45.943,
            "vote_count":29,
            "video":false,
            "poster_path":"\/suPfemWGPk8xOePePITOhg1C5EP.jpg",
            "id":568012,
            "adult":false,
            "backdrop_path":"\/iGnCzXEx0cFlUbpyAMeHwHWhPhx.jpg",
            "original_language":"ja",
            "original_title":"ワンピーススタンピード",
            "genre_ids":[
                28,
                12,
                16
            ],
            "title":"ワンピーススタンピード",
            "vote_average":8.3,
            "overview":"",
            "release_date":"2019-08-09"
        },
        {
            "popularity":21.278,
            "vote_count":23,
            "video":false,
            "poster_path":"\/oQvUq7UmumBTcAnvgFLFvegY47d.jpg",
            "id":503125,
            "adult":false,
            "backdrop_path":"\/q9sYdqlB7zkp2KUD4MvSJgoY7xl.jpg",
            "original_language":"en",
            "original_title":"Little Monsters",
            "genre_ids":[
                35,
                27
            ],
            "title":"Little Monsters",
            "vote_average":6.9,
            "overview":"Dave (Alexander England), um músico falido, se voluntaria para acompanhar a viagem do jardim de infância de seu sobrinho, após se interessar pela professora Caroline (Lupita Nyong'o). As intenções de Dave são complicadas pela presença da personalidade de programa infantil mais famosa do mundo e, também, por outro homem que disputa a atenção de Caroline. Uma coisa que nenhum deles esperava, no entanto, era um inesperado apocalipse zumbi.",
            "release_date":"2019-08-29"
        }
    ],
    "page":1,
    "total_results":488,
    "dates":{
        "maximum":"2019-11-07",
        "minimum":"2019-10-15"
    },
    "total_pages":25
}
